<?xml version="1.0" encoding="UTF-8"?>
<!--
SPDX-FileCopyrightText: 2020 Romain Vigier <contact AT romainvigier.fr>
SPDX-License-Identifier: CC-BY-SA-4.0
-->
<svg width="16" height="16" version="1.1" viewBox="0 0 16 16" xmlns="http://www.w3.org/2000/svg"><path d="m8 0a5 5 0 0 0-5 5h3 1a1 1 0 0 1 1-1 1 1 0 0 1 1 1 1 1 0 0 1-1 1h-1c-0.554 0-1 0.446-1 1v1 1.582 0.41797h2 2v-0.41797a5 5 0 0 0 3-4.582 5 5 0 0 0-5-5zm-1 12c-0.554 0-1 0.446-1 1v2c0 0.554 0.446 1 1 1h2c0.554 0 1-0.446 1-1v-2c0-0.554-0.446-1-1-1h-2z"/></svg>
