<?xml version="1.0" encoding="UTF-8"?>
<!--
SPDX-FileCopyrightText: 2020 Romain Vigier <contact AT romainvigier.fr>
SPDX-License-Identifier: CC-BY-SA-4.0
-->
<svg width="16" height="16" version="1.1" viewBox="0 0 16 16" xmlns="http://www.w3.org/2000/svg"><path d="m14.01 2.9043c-0.25562 0-0.51116 0.0971-0.70703 0.29297l-7.0703 7.0703-3.5352-3.5352c-0.39174-0.39174-1.0223-0.39174-1.4141 0-0.39174 0.39174-0.39174 1.0223 0 1.4141l4.9492 4.9492 8.4844-8.4844c0.39174-0.39174 0.39174-1.0223 0-1.4141-0.19587-0.19587-0.45141-0.29297-0.70703-0.29297z"/></svg>
